<?xml version="1.0" encoding="UTF-8"?>
<testsuites name="API Tests" time="3.869" tests="14" failures="0">
  <testsuite name="Root Suite" timestamp="2023-08-10T16:04:17" tests="0" time="0.000" failures="0">
  </testsuite>
  <testsuite name="Posts controller" timestamp="2023-08-10T16:04:17" tests="6" file="/Users/ekaterinarubanik/Tread-Net/tests/api/specs/posts_api-test.ts" time="2.363" failures="0">
    <testcase name="Login" time="0.206" classname="Posts controller Login">
    </testcase>
    <testcase name="Login with invalid credentials email: &quot;Ivan.i@gmail.com&quot;, &quot;123QWE&quot;" time="0.095" classname="Posts controller Login with invalid credentials email: &quot;Ivan.i@gmail.com&quot;, &quot;123QWE&quot;">
    </testcase>
    <testcase name="GetAllPosts" time="1.620" classname="Posts controller GetAllPosts">
    </testcase>
    <testcase name="createNewPost" time="0.119" classname="Posts controller createNewPost">
    </testcase>
    <testcase name="createNewComment" time="0.186" classname="Posts controller createNewComment">
    </testcase>
    <testcase name="createNewLike" time="0.123" classname="Posts controller createNewLike">
    </testcase>
  </testsuite>
  <testsuite name="Users controller" timestamp="2023-08-10T16:04:19" tests="8" file="/Users/ekaterinarubanik/Tread-Net/tests/api/specs/thread_api-test.ts" time="1.503" failures="0">
    <testcase name="Register" time="0.126" classname="Users controller Register">
    </testcase>
    <testcase name="GetAllUsers" time="0.438" classname="Users controller GetAllUsers">
    </testcase>
    <testcase name="Login" time="0.107" classname="Users controller Login">
    </testcase>
    <testcase name="getCurrentUser" time="0.341" classname="Users controller getCurrentUser">
    </testcase>
    <testcase name="get update username using valid data" time="0.096" classname="Users controller get update username using valid data">
    </testcase>
    <testcase name="getCurrentUser" time="0.100" classname="Users controller getCurrentUser">
    </testcase>
    <testcase name="getUserById" time="0.110" classname="Users controller getUserById">
    </testcase>
    <testcase name="deleteUserById" time="0.166" classname="Users controller deleteUserById">
    </testcase>
  </testsuite>
</testsuites>